Bioregionalization in Ecology using SCCA • SCCA
…
The data contains a binary matrix of sites x species (rows x columns) with values of 0 indicating absence and values of 1 indicating presence of a given species j in site i. Specifically, there are 41580 sites representing ca. 100 x 100 km grid cells distributed globally and with at least one presence. There are 288 species including marine and terrestrial carnivores.

We can have a look at the geographic distribution of those sites by loading the pre-loaded coordinates of the carnivora dataset, which are named carnivora_sites. Also, we can list which species are represented in each column with teh pre-loaded carnivora_species.

# retrieve coordinates
sites <- carnivora_sites

# inspect 
head(sites)
#> # A tibble: 6 x 3
#>   site    lon   lat
#>   <chr> <dbl> <dbl>
#> 1 0     -179.  80.7
#> 2 1     -178.  80.7
#> 3 2     -177.  80.7
#> 4 3     -176.  80.7
#> # … with 2 more rows

# retrieve species
carnivores <- carnivora_species

# inspect 
head(carnivores)
#> # A tibble: 6 x 2
#>   species_id species_name                      
#>   <chr>      <chr>                             
#> 1 0          Acinonyx_jubatus_Terrestrial      
#> 2 1          Ailuropoda_melanoleuca_Terrestrial
#> 3 2          Ailurus_fulgens_Terrestrial       
#> 4 3          Aonyx_capensis_Terrestrial        
#> # … with 2 more rows
…
There are 17 leaf nodes or clusters identified by the heuristic. Eijden: What about the stochastic nature? The number of clusters can differ per run of scca_compute. 

The attributes asked to be printed in scca_print() have the following meaning: n_labs is the number of observations (labels), k is the number of relevant Eigenvalues (i.e. before the eigengap) at each branch node, node_type is the type of branch (internal) or leaf (terminal) nodes. If no attribute is given, then only the tree hierarchy is printed.

scca_get_clusters(): retrieve and plot/map clusters

The function scca_get_clusters saves the observations and the cluster it has been assigned to, in an object. which allows to map obtained clusters or bioregions.

# save the clusters in object scca
(clusts<-scca_get_clusters(scca))
#> # A tibble: 41,579 x 3
#>   label cluster path  
#>   <chr>   <dbl> <chr> 
#> 1 0          16 1.2.11
#> 2 1          16 1.2.11
#> 3 2          16 1.2.11
#> 4 3          16 1.2.11
#> # … with 41,575 more rows
…
#> # A tibble: 25 x 2
#>   order value
#>   <int> <dbl>
#> 1     1 1.   
#> 2     2 1.00 
#> 3     3 0.986
#> 4     4 0.951
#> # … with 21 more rows
…
